Practical_5
…
titanic <- titanic %>% select(-Name) 
titanic %>% mutate(PClass <- as.factor(PClass), 
                   Age <- as.factor(Age),
                   Sex <- as.factor(Sex), 
                   Survived <- as.factor(Survived))

## # A tibble: 1,313 x 8
##    PClass   Age Sex   Survived `PClass <- as.f~ `Age <- as.fact~
##    <chr>  <dbl> <chr>    <dbl> <fct>            <fct>           
##  1 1st    29    fema~        1 1st              29              
##  2 1st     2    fema~        0 1st              2               
##  3 1st    30    male         0 1st              30              
##  4 1st    25    fema~        0 1st              25              
##  5 1st     0.92 male         1 1st              0.92            
##  6 1st    47    male         1 1st              47              
##  7 1st    63    fema~        1 1st              63              
##  8 1st    39    male         0 1st              39              
##  9 1st    58    fema~        1 1st              58              
## 10 1st    71    male         0 1st              71              
## # ... with 1,303 more rows, and 2 more variables: `Sex <-
## #   as.factor(Sex)` <fct>, `Survived <- as.factor(Survived)` <fct>
…
