P2_Dacko
…
set.seed(1234)
student_grade  <- rnorm(32, 7)
student_number <- round(runif(32) * 2e6 + 5e6)
programme      <- sample(c("Science", "Social Science"), 32, replace = TRUE)
gg_students<-tibble(student_grade=student_grade,student_number=student_number,programme=programme )
gg_students

## # A tibble: 32 x 3
##    student_grade student_number programme     
##            <dbl>          <dbl> <chr>         
##  1          5.79        5478051 Social Science
##  2          7.28        6412989 Science       
##  3          8.08        5616190 Social Science
##  4          4.65        6017095 Social Science
##  5          7.43        5103293 Social Science
##  6          7.51        6129140 Science       
##  7          6.43        5242960 Science       
##  8          6.45        6785673 Science       
##  9          6.44        5029255 Science       
## 10          6.11        6566242 Social Science
## # ... with 22 more rows
…
