Practical_6
…
treat %>% mutate(severity <- as.factor(severity), 
                          gender <- as.factor(gender),
                          dose <- as.factor(dose),
                          response <- as.factor(response))

## # A tibble: 253 x 11
##    severity   age gender bb_score prior_cvd  dose response `severity <- as~
##    <chr>    <dbl> <chr>     <dbl>     <dbl> <dbl>    <dbl> <fct>           
##  1 high      54.8 m         350.          0     2        1 high            
##  2 low       59.5 f          99.7         0     2        0 low             
##  3 low       55.4 f         445.          0     2        0 low             
##  4 low       48.2 f         153.          0     2        1 low             
##  5 low       54.5 f         251.          1     2        0 low             
##  6 low       40.7 m         349.          0     2        1 low             
##  7 low       61.2 f         148.          0     2        0 low             
##  8 high      57.4 f         198.          1     3        1 high            
##  9 low       42.0 f         308.          0     1        1 low             
## 10 low       65.5 m         155.          0     2        0 low             
## # ... with 243 more rows, and 3 more variables: `gender <-
## #   as.factor(gender)` <fct>, `dose <- as.factor(dose)` <fct>, `response
## #   <- as.factor(response)` <fct>
…
new_patients %>% mutate(severity <- as.factor(severity), 
                        gender <- as.factor(gender), 
                        dose <- as.factor(dose), 
                        response <- as.factor(response))

## # A tibble: 50 x 11
##    severity   age gender bb_score prior_cvd  dose response `severity <- as~
##    <chr>    <dbl> <chr>     <dbl>     <dbl> <dbl>    <dbl> <fct>           
##  1 high      71.6 m          298.         1     3        1 high            
##  2 low       35.7 m          248.         0     2        1 low             
##  3 low       53.3 m          199.         0     2        1 low             
##  4 low       63.5 m          155.         0     2        0 low             
##  5 low       51.0 m          204.         0     2        1 low             
##  6 low       61.1 f          153.         1     2        1 low             
##  7 low       57.1 m          199.         0     2        0 low             
##  8 high      51.1 m          305.         1     3        1 high            
##  9 high      45.7 m          150.         0     3        1 high            
## 10 high      50.2 f          452.         1     3        1 high            
## # ... with 40 more rows, and 3 more variables: `gender <-
## #   as.factor(gender)` <fct>, `dose <- as.factor(dose)` <fct>, `response
## #   <- as.factor(response)` <fct>
…
